1.reading activity.csv
…
##   steps       date interval
## 1    NA 2012-10-01        0
## 2    NA 2012-10-01        5
## 3    NA 2012-10-01       10
## 4    NA 2012-10-01       15
## 5    NA 2012-10-01       20
## 6    NA 2012-10-01       25

#total step taken each day

library(tidyverse)
step_per_day <- group_by(activity,date)
(total_step_per_day <- summarise(step_per_day,totalsteps=sum(steps,na.rm=TRUE)))

## # A tibble: 61 x 2
##    date       totalsteps
##    <date>          <dbl>
##  1 2012-10-01          0
##  2 2012-10-02        126
##  3 2012-10-03      11352
##  4 2012-10-04      12116
##  5 2012-10-05      13294
##  6 2012-10-06      15420
##  7 2012-10-07      11015
##  8 2012-10-08          0
##  9 2012-10-09      12811
## 10 2012-10-10       9900
## # ... with 51 more rows
…
##      steps             date               interval     
##  Min.   :  0.00   Min.   :2012-10-01   Min.   :   0.0  
##  1st Qu.:  0.00   1st Qu.:2012-10-16   1st Qu.: 588.8  
##  Median :  0.00   Median :2012-10-31   Median :1177.5  
##  Mean   : 37.38   Mean   :2012-10-31   Mean   :1177.5  
##  3rd Qu.: 12.00   3rd Qu.:2012-11-15   3rd Qu.:1766.2  
##  Max.   :806.00   Max.   :2012-11-30   Max.   :2355.0  
##  NA's   :2304

#3.mean and median of steps

(mean_median <- summarise(step_per_day,mean=mean(steps,na.rm = TRUE),median=median(steps,na.rm=TRUE)))

## # A tibble: 61 x 3
##    date          mean median
##    <date>       <dbl>  <dbl>
##  1 2012-10-01 NaN         NA
##  2 2012-10-02   0.438      0
##  3 2012-10-03  39.4        0
##  4 2012-10-04  42.1        0
##  5 2012-10-05  46.2        0
##  6 2012-10-06  53.5        0
##  7 2012-10-07  38.2        0
##  8 2012-10-08 NaN         NA
##  9 2012-10-09  44.5        0
## 10 2012-10-10  34.4        0
## # ... with 51 more rows
…
